%YAML 1.1
%TAG !u! tag:unity3d.com,2011:
--- !u!1045 &1
EditorBuildSettings:
  m_ObjectHideFlags: 0
  serializedVersion: 2
  m_Scenes:
  - enabled: 1
    path: Assets/Scenes/Main Menu.unity
    guid: b5a5da43658881844bafe3235bb70b26
  - enabled: 1
    path: Assets/Scenes/Main Level.unity
    guid: 2cda990e2423bbf4892e6590ba056729
  m_configObjects: {}
